hw5
…
Find the daily sales liquor sales in Ames in 2019. Summarize the number of sales, volume of liquor sold, and amount of money spent.

ames %>%
  group_by(date_new) %>%
  summarise(money_spent = sum(`State Bottle Retail`), num_sales= sum(`Sale (Dollars)`), Volume_of_liq_sold = sum(`Volume Sold (Gallons)`))

## # A tibble: 157 x 4
##    date_new   money_spent num_sales Volume_of_liq_sold
##    <date>           <dbl>     <dbl>              <dbl>
##  1 2019-01-03     16920.    112009.             1795. 
##  2 2019-01-04      2067.     16766.              331. 
##  3 2019-01-09     16098.     99703.             1773. 
##  4 2019-01-10        39.0     1457.               35.6
##  5 2019-01-11      2378.     16481.              317. 
##  6 2019-01-16     15833.    118597.             2168. 
##  7 2019-01-18      1446.      4483.               60.8
##  8 2019-01-24     21301.    139658.             2434. 
##  9 2019-01-25      3973.     31893.              614. 
## 10 2019-01-30     18056.    127225.             2306. 
## #  with 147 more rows
…
